<?xml version="1.0" encoding="UTF-8"?>
<svg width="83px" height="25px" viewBox="0 0 83 25" version="1.1" xmlns="http://www.w3.org/2000/svg" xmlns:xlink="http://www.w3.org/1999/xlink">
    <!-- Generator: Sketch 62 (91390) - https://sketch.com -->
    <title>Group 10</title>
    <desc>Created with Sketch.</desc>
    <defs>
        <polygon id="path-1" points="0.00201234521 0.0463547078 18.9621904 0.0463547078 18.9621904 22 0.00201234521 22"></polygon>
    </defs>
    <g id="Page-1" stroke="none" stroke-width="1" fill="none" fill-rule="evenodd">
        <g id="Agregar-Saldo-Transferencia-BBVA" transform="translate(-271.000000, -150.000000)">
            <g id="Group-10" transform="translate(271.000000, 150.000000)">
                <path d="M52.1640385,24.4863471 C52.0181503,24.75144 51.9948346,24.8618086 51.690771,24.9826391 C51.5672396,25.005398 51.4436482,25.0055204 51.3200569,24.9845357 C51.0043655,24.8691502 50.9661852,24.6764945 50.8379187,24.4328146 L40.2033672,4.03186151 C40.1159782,3.87230413 40.0236743,3.71341972 40.0068917,3.52419005 C40.0068917,3.52419005 39.9106919,3 40.437124,3 C41.573721,3 42.5290666,3.03016173 43.5735995,3.03016173 C43.9177013,3.02447199 44.1235271,3.12976273 44.2835605,3.40629623 L51.0876188,16.7918025 C51.2237371,16.9879455 51.2569426,17.0310162 51.3514642,17.1428532 C51.5929528,17.243066 51.7682704,17.1664075 51.9102027,16.8927494 L58.5592622,3.9396021 C58.5592622,3.9396021 58.9669579,3.02367665 59.366562,3.02367665 C60.4400447,3.02814279 61.4701326,3.08589669 62.5436153,3.08589669 C63.0177818,3.08589669 63.0178417,3.46460075 62.9903903,3.56511946 C62.6665473,4.14687987 62.5289905,4.444704 62.4033613,4.74179397 L52.1640385,24.4863471 Z" id="Fill-1" fill="#004481"></path>
                <path d="M70.8359615,0.513643473 C70.9818497,0.248551267 71.0051654,0.138182852 71.309229,0.0173526869 C71.4327604,-0.00540621008 71.5563518,-0.00552856974 71.6799431,0.015517292 C71.9956345,0.130841273 72.0338148,0.32349656 72.1620813,0.567175825 L82.7966328,20.9680798 C82.8840218,21.127698 82.9763257,21.286582 82.9931083,21.47575 C82.9931083,21.47575 83.0893081,22 82.562876,22 C81.4262191,22 80.4709334,21.9698383 79.4264005,21.9698383 C79.0822987,21.9754669 78.8765328,21.8702376 78.7164395,21.5936436 L71.9123812,8.2081696 C71.7762629,8.01202706 71.7430574,7.96895646 71.6485358,7.85711973 C71.4070472,7.75690716 71.2317296,7.83362667 71.0897973,8.10722287 L64.4407378,21.060339 C64.4407378,21.060339 64.0330421,21.9763234 63.633438,21.9763234 C62.5599553,21.9718573 61.5298674,21.9140423 60.4563847,21.9140423 C59.9822182,21.9140423 59.9821583,21.5354004 60.0096097,21.4348207 C60.3334527,20.8531229 60.4710095,20.5552995 60.5966387,20.258149 L70.8359615,0.513643473 Z" id="Fill-3" fill="#004481"></path>
                <g id="Group-7" transform="translate(22.000000, 3.000000)">
                    <mask id="mask-2" fill="white">
                        <use xlink:href="#path-1"></use>
                    </mask>
                    <g id="Clip-6"></g>
                    <path d="M12.9685521,18.5307219 C12.6305749,18.612262 9.80588762,18.7415197 8.76893322,18.744262 C6.5938355,18.7501125 6.59668241,18.7466388 4.42158469,18.7462731 C3.89391694,18.7461512 3.7887671,18.6429158 3.78858143,18.1225945 C3.78802443,16.3462011 3.78802443,14.5698687 3.78864332,12.7934753 C3.78882899,12.2663895 3.90982248,12.1460903 4.43693322,12.1459075 C5.65336645,12.1454809 7.28897557,12.1457856 8.70716775,12.1457856 C9.74133713,12.1664449 12.1264251,12.0817357 13.3354935,12.4870598 C14.4172557,12.8497247 15.2673046,13.7271651 15.2673046,15.4183008 C15.2673046,17.0180238 14.1523078,18.2450875 12.9685521,18.5307219 M3.79910261,3.84477729 C3.79928827,3.4426831 3.94299511,3.29959169 4.35907655,3.29989591 C6.55571173,3.30148089 8.75240879,3.30269972 10.9489821,3.31178006 C11.3612264,3.31348643 14.2048518,3.58540886 14.2283078,6.09932022 C14.2447085,7.8512759 13.3552362,8.96858338 11.8401873,8.96858338 C11.1258616,8.96858338 5.50111889,8.97717618 4.35635342,8.97665288 C3.92009609,8.97638393 3.79928827,8.86169141 3.79904072,8.4452759 C3.79829805,6.91179668 3.79823616,5.37825651 3.79910261,3.84477729 M18.4661743,12.847287 C18.1916954,12.243841 17.6577769,11.6046222 17.3206042,11.225564 C16.8201059,10.7472925 16.4354642,10.4286886 15.7511547,10.1922953 C15.7934251,10.0837579 15.8641645,10.0556637 15.9232687,10.0188548 C16.4656661,9.681359 16.8885554,9.22947535 17.216816,8.69215125 C17.7324772,7.84786316 17.9982296,6.93452798 17.9700081,5.94464986 C17.9039104,5.69539778 18.0021287,5.44900997 17.9724837,5.19463878 C17.852728,4.16612355 17.4836205,3.23932022 16.8670798,2.40453906 C16.8215293,2.34256122 16.7695423,2.28637285 16.7148322,2.23231745 C16.4018583,1.94217341 16.1243469,1.61503767 15.7709593,1.36810139 C15.6424772,1.27406814 15.5046498,1.19325928 15.3766629,1.09879945 C14.8454674,0.741192798 14.251702,0.524727424 13.6384414,0.353359003 C13.5370668,0.327885319 13.438601,0.292721884 13.3403827,0.258350693 C12.6027866,0.102705263 11.8622199,0.0785722992 11.1042003,0.0861900277 C7.78316124,0.11958615 4.46156515,0.100633241 1.14015472,0.10026759 C1.01674756,0.10026759 0.891174267,0.11361385 0.771418567,0.0748548476 C0.344754072,-0.0630565097 -0.0976302932,0.32160831 0.0218159609,0.753807756 C0.103385993,0.932793906 0.119724756,1.1200072 0.119600977,1.31550859 C0.116754072,7.5440072 0.118053746,13.7725058 0.115825733,20.0010044 C0.115578176,20.5366222 0.151845277,21.0739463 0.0671188925,21.6071873 C0.0932361564,21.8206665 0.215096091,21.9400515 0.431399023,21.9669269 C3.82348697,21.9805169 10.859614,22.0000183 11.296057,22.0000183 C12.1192459,22.0000183 13.924741,21.7640515 14.404816,21.5930488 C16.3709756,20.8928881 18.9174088,19.2271651 18.9174088,16.5654089 C18.9472394,16.2752648 19.1276466,14.2146997 18.4661743,12.847287" id="Fill-5" fill="#004481" mask="url(#mask-2)"></path>
                </g>
                <path d="M12.9608781,21.5233811 C12.6230485,21.6050934 9.79959453,21.7346238 8.7630929,21.737372 C6.58894491,21.7432348 6.59179058,21.7397538 4.41764259,21.7393873 C3.89020524,21.7392652 3.78510131,21.6358118 3.78491573,21.1143923 C3.78435897,19.3342496 3.78435897,17.554168 3.78497759,15.7740253 C3.78516317,15.2458269 3.90610383,15.1252739 4.43298442,15.1250907 C5.6488865,15.1246632 7.28378145,15.1249685 8.7013544,15.1249685 C9.73507222,15.1456714 12.1191187,15.0607835 13.3276592,15.4669631 C14.4089491,15.8303933 15.2586268,16.7096857 15.2586268,18.4043909 C15.2586268,20.0074903 14.1441169,21.2371439 12.9608781,21.5233811 M3.7954323,6.80643971 C3.79561789,6.40349684 3.93926198,6.26010342 4.35516174,6.26040828 C6.55083778,6.2619966 8.74657569,6.26321801 10.9421899,6.27231751 C11.3542542,6.27402748 14.1966379,6.54652385 14.2200837,9.06574118 C14.2364772,10.8213946 13.2362887,11.6543346 11.7394703,11.8815166 C11.0819985,11.9813058 5.49670542,11.9496713 4.3524398,11.9491216 C3.91637296,11.9488774 3.79561789,11.8339428 3.79537044,11.4166483 C3.79462809,9.87993249 3.79456623,8.34315556 3.7954323,6.80643971 M18.4560998,15.8279505 C17.8153308,14.6051979 16.4262763,13.4042474 15.7422657,13.1673551 C15.7845176,13.0585886 15.8552261,13.0304351 15.9143045,12.9935486 C16.4564651,12.6553404 16.8791697,12.202503 17.207287,11.6640448 C17.722723,10.8179747 17.9883595,9.90271177 17.9600884,8.91074437 C17.8940814,8.66096621 17.9922568,8.41405836 17.9626866,8.15915028 C17.8429214,7.12846421 17.473975,6.19970474 16.8577035,5.36316164 C16.8121729,5.30105299 16.7602086,5.24474603 16.7055224,5.19057654 C16.3926852,4.8998201 16.1152949,4.5719939 15.7620616,4.32453642 C15.6336356,4.23030471 15.4958066,4.14932528 15.3679374,4.05466608 C14.8369739,3.69630465 14.2434676,3.47938239 13.6304748,3.30765227 C13.5291445,3.28212482 13.4307217,3.24688717 13.3325463,3.21244343 C12.5952723,3.05646949 11.8550289,3.03228559 11.0973403,3.0399194 C7.77775134,3.07338601 4.45760559,3.0543931 1.13764542,3.05402667 C1.01429214,3.05402667 0.888773679,3.0674011 0.769070269,3.02856029 C0.342592072,2.89035785 -0.0995991305,3.27583457 0.0197949687,3.70894623 C0.101329385,3.88831016 0.117661013,4.0759186 0.117537288,4.27183261 C0.114691626,10.5134774 0.115990733,16.7551222 0.113763692,22.9967669 C0.113516243,23.5335152 0.149767509,24.0719734 0.0650781193,24.6063398 C0.0911839793,24.8202697 0.212990705,24.9399067 0.429199191,24.9668387 C3.81980602,24.9804575 10.8528608,25 11.2891132,25 C12.1119427,25 13.9166495,24.7635352 14.3965148,24.5921715 C16.3618159,23.890533 18.5470372,22.2009578 18.9071373,19.55392 C19.0264695,18.6410389 19.1501939,17.1524465 18.4560998,15.8279505" id="Fill-8" fill="#004481"></path>
            </g>
        </g>
    </g>
</svg>