<?xml version="1.0" encoding="UTF-8"?>
<svg width="16px" height="17px" viewBox="0 0 16 17" version="1.1" xmlns="http://www.w3.org/2000/svg" xmlns:xlink="http://www.w3.org/1999/xlink">
    <!-- Generator: Sketch 62 (91390) - https://sketch.com -->
    <title>calendar-appointment-date-svgrepo-com copy</title>
    <desc>Created with Sketch.</desc>
    <g id="Page-1" stroke="none" stroke-width="1" fill="none" fill-rule="evenodd" stroke-linecap="round" stroke-linejoin="round">
        <g id="Mis-movimientos" transform="translate(-54.000000, -317.000000)" stroke="#FF6B35" stroke-width="2">
            <g id="calendar-appointment-date-svgrepo-com-copy" transform="translate(55.000000, 318.000000)">
                <path d="M0,2.40740741 C0,1.53806991 0.696445556,0.833333333 1.55555556,0.833333333 L12.4444444,0.833333333 C13.3035778,0.833333333 14,1.53806991 14,2.40740741 L14,13.4259259 C14,14.295287 13.3035778,15 12.4444444,15 L1.55555556,15 C0.696445556,15 0,14.295287 0,13.4259259 L0,2.40740741 Z" id="Path"></path>
                <line x1="0" y1="6.25" x2="14" y2="6.25" id="Path"></line>
                <line x1="10.2941176" y1="0" x2="10.2941176" y2="3.33333333" id="Path"></line>
                <line x1="3.70588235" y1="0" x2="3.70588235" y2="3.33333333" id="Path"></line>
            </g>
        </g>
    </g>
</svg>