<?xml version="1.0" encoding="UTF-8"?>
<svg width="96px" height="96px" viewBox="0 0 96 96" version="1.1" xmlns="http://www.w3.org/2000/svg" xmlns:xlink="http://www.w3.org/1999/xlink">
    <!-- Generator: Sketch 62 (91390) - https://sketch.com -->
    <title>check-circle-svgrepo-com</title>
    <desc>Created with Sketch.</desc>
    <g id="Page-1" stroke="none" stroke-width="1" fill="none" fill-rule="evenodd">
        <g id="Confirmación-de-creación-de-cuenta" transform="translate(-159.000000, -173.000000)" fill="#FFFFFF" fill-rule="nonzero">
            <g id="check-circle-svgrepo-com" transform="translate(159.000000, 173.000000)">
                <path d="M48,5.68434189e-14 C21.490332,5.68434189e-14 0,21.490332 0,48 C0,74.509668 21.490332,96 48,96 C74.509668,96 96,74.509668 96,48 C95.957714,21.5078672 74.4921328,0.042286007 48,5.68434189e-14 Z M70.608,41.808 L46.608,65.808 C44.7151867,67.6643536 41.6848133,67.6643536 39.792,65.808 L25.392,51.408 C24.1744389,50.1904389 23.6989271,48.4158049 24.1445854,46.7525854 C24.5902437,45.089366 25.889366,43.7902437 27.5525854,43.3445854 C29.2158049,42.8989271 30.9904389,43.3744389 32.208,44.592 L43.2,55.632 L63.792,34.992 C65.6741864,33.1098136 68.7258136,33.1098136 70.608,34.992 C72.4901864,36.8741864 72.4901864,39.9258136 70.608,41.808 L70.608,41.808 Z" id="check-circle-Filled-2"></path>
            </g>
        </g>
    </g>
</svg>