<?xml version="1.0" encoding="UTF-8"?>
<svg width="38px" height="38px" viewBox="0 0 38 38" version="1.1" xmlns="http://www.w3.org/2000/svg" xmlns:xlink="http://www.w3.org/1999/xlink">
    <!-- Generator: Sketch 62 (91390) - https://sketch.com -->
    <title>check-circle-solid</title>
    <desc>Created with Sketch.</desc>
    <g id="Page-1" stroke="none" stroke-width="1" fill="none" fill-rule="evenodd">
        <g id="Activación-portabilidad" transform="translate(-55.000000, -397.000000)" fill="#1F9701" fill-rule="nonzero">
            <g id="check-circle-solid" transform="translate(55.000000, 397.000000)">
                <path d="M38,19 C38,29.4934395 29.4934395,38 19,38 C8.50656048,38 0,29.4934395 0,19 C0,8.50656048 8.50656048,0 19,0 C29.4934395,0 38,8.50656048 38,19 Z M16.8022823,29.0603468 L30.8990565,14.9635726 C31.3777339,14.4848952 31.3777339,13.7087298 30.8990565,13.2300524 L29.1655363,11.4965323 C28.6868589,11.0177782 27.9106935,11.0177782 27.4319395,11.4965323 L15.9354839,22.9929113 L10.5680605,17.6254879 C10.0893831,17.1468105 9.31321774,17.1468105 8.83446371,17.6254879 L7.10094355,19.3590081 C6.62226613,19.8376855 6.62226613,20.6138508 7.10094355,21.0925282 L15.0686855,29.0602702 C15.5474395,29.5390242 16.3235282,29.5390242 16.8022823,29.0603468 L16.8022823,29.0603468 Z" id="Shape"></path>
            </g>
        </g>
    </g>
</svg>